; Engine configuration file.
; It's best edited using the editor UI and not directly,
; since the parameters that go here are not all obvious.
;
; Format:
;   [section] ; section goes between []
;   param=value ; assign values to parameters

config_version=5

[application]

config/name="StarField"
run/main_scene="res://addons/star_field/Example.tscn"
config/features=PackedStringArray("4.0")
config/icon="res://addons/star_field/icon.png"

[display]

window/vsync/vsync_mode=0
window/vsync/use_vsync=false

[editor_plugins]

enabled=PackedStringArray("res://addons/star_field/plugin.cfg")

[global]

frame=false

[input]

left={
"deadzone": 0.5,
"events": [Object(InputEventKey,"resource_local_to_scene":false,"resource_name":"","device":0,"window_id":0,"alt_pressed":false,"shift_pressed":false,"ctrl_pressed":false,"meta_pressed":false,"pressed":false,"keycode":16777231,"physical_keycode":0,"key_label":0,"unicode":0,"echo":false,"script":null)
]
}
right={
"deadzone": 0.5,
"events": [Object(InputEventKey,"resource_local_to_scene":false,"resource_name":"","device":0,"window_id":0,"alt_pressed":false,"shift_pressed":false,"ctrl_pressed":false,"meta_pressed":false,"pressed":false,"keycode":16777233,"physical_keycode":0,"key_label":0,"unicode":0,"echo":false,"script":null)
]
}
backwards={
"deadzone": 0.5,
"events": [Object(InputEventKey,"resource_local_to_scene":false,"resource_name":"","device":0,"window_id":0,"alt_pressed":false,"shift_pressed":false,"ctrl_pressed":false,"meta_pressed":false,"pressed":false,"keycode":16777234,"physical_keycode":0,"key_label":0,"unicode":0,"echo":false,"script":null)
]
}
tilt_down={
"deadzone": 0.5,
"events": [Object(InputEventKey,"resource_local_to_scene":false,"resource_name":"","device":0,"window_id":0,"alt_pressed":false,"shift_pressed":false,"ctrl_pressed":false,"meta_pressed":false,"pressed":false,"keycode":16777237,"physical_keycode":0,"key_label":0,"unicode":0,"echo":false,"script":null)
]
}
forward={
"deadzone": 0.5,
"events": [Object(InputEventKey,"resource_local_to_scene":false,"resource_name":"","device":0,"window_id":0,"alt_pressed":false,"shift_pressed":false,"ctrl_pressed":false,"meta_pressed":false,"pressed":false,"keycode":16777232,"physical_keycode":0,"key_label":0,"unicode":0,"echo":false,"script":null)
]
}

[physics]

common/enable_pause_aware_picking=true

[rendering]

anti_aliasing/screen_space_roughness_limiter/enabled=false
environment/default_environment="res://addons/star_field/default_env.tres"
